[
  {
    "objectID": "index.html",
    "href": "index.html",
    "title": "Manual",
    "section": "",
    "text": "Introducción\nManual para integrantes de la Gerencia de Datos de la SSGRH."
  },
  {
    "objectID": "Accesos.html",
    "href": "Accesos.html",
    "title": "1  Accesos",
    "section": "",
    "text": "."
  },
  {
    "objectID": "Herramientas.html",
    "href": "Herramientas.html",
    "title": "Herramientas",
    "section": "",
    "text": "1) Para arrancar con R, el ya clásico introductorio R for Data Science. Tiene una versión en español acá. Para encontrar información interesante sobre la lógica de la programación en R, usamos Advanced R.\n2) Para construir Dashboards, usaremos Mastering Shiny.\n3) Para control de versiones e instalación de Git, Happy Git and Github for the useR.\n4) Para publicaciones, Quarto y, en su defecto, el clásico R Markdown."
  },
  {
    "objectID": "Procesos.html",
    "href": "Procesos.html",
    "title": "Procesos",
    "section": "",
    "text": "."
  }
]